{
    "photos":{
       "page":1,
       "pages":2082,
       "perpage":10,
       "total":"20820",
       "photo":[
          {
             "id":"38273627344",
             "owner":"107756784@N04",
             "secret":"a322c29bba",
             "server":"4687",
             "farm":5,
             "title":"IMG_3277.jpg",
             "ispublic":1,
             "isfriend":0,
             "isfamily":0
          },
          {
             "id":"27170323819",
             "owner":"47620315@N04",
             "secret":"bcf6a1d19e",
             "server":"4551",
             "farm":5,
             "title":"MiniMates - Fellowship Comparison",
             "ispublic":1,
             "isfriend":0,
             "isfamily":0
          },
          {
             "id":"38231444624",
             "owner":"47620315@N04",
             "secret":"0f30716bf2",
             "server":"4633",
             "farm":5,
             "title":"MiniMates - Fellowship of the Ring",
             "ispublic":1,
             "isfriend":0,
             "isfamily":0
          },
          {
             "id":"38902592611",
             "owner":"57139199@N08",
             "secret":"c28b0b25ce",
             "server":"4534",
             "farm":5,
             "title":"LOTR - Gandalf\u2019s Charge at Helm\u2019s Deep",
             "ispublic":1,
             "isfriend":0,
             "isfamily":0
          },
          {
             "id":"38789331282",
             "owner":"78051834@N00",
             "secret":"d15376df52",
             "server":"4547",
             "farm":5,
             "title":"2017-337 - Stormin\u2019 Norman",
             "ispublic":1,
             "isfriend":0,
             "isfamily":0
          },
          {
             "id":"38816337061",
             "owner":"15923063@N00",
             "secret":"97810b13f7",
             "server":"4552",
             "farm":5,
             "title":"",
             "ispublic":1,
             "isfriend":0,
             "isfamily":0
          },
          {
             "id":"38816330941",
             "owner":"15923063@N00",
             "secret":"407fc560ae",
             "server":"4552",
             "farm":5,
             "title":"",
             "ispublic":1,
             "isfriend":0,
             "isfamily":0
          },
          {
             "id":"24766853408",
             "owner":"134989406@N02",
             "secret":"064bb9508a",
             "server":"4582",
             "farm":5,
             "title":"Gandalf Summons a Bus",
             "ispublic":1,
             "isfriend":0,
             "isfamily":0
          },
          {
             "id":"37769457594",
             "owner":"10786632@N02",
             "secret":"c7ccb877e5",
             "server":"4518",
             "farm":5,
             "title":"Sleeping Gandalf",
             "ispublic":1,
             "isfriend":0,
             "isfamily":0
          },
          {
             "id":"38426995876",
             "owner":"24885699@N02",
             "secret":"b9a65c85a7",
             "server":"4517",
             "farm":5,
             "title":"D-CGAN - Z\u00fcrich Kloten (ZRH) 28.01.2001",
             "ispublic":1,
             "isfriend":0,
             "isfamily":0
          }
       ]
    },
    "stat":"ok"
 }